      Start |        End | Src | Data (! denotes parity error)                                           | CRC | Annotation
------------+------------+-----+-------------------------------------------------------------------------+-----+--------------------
          0 |       1056 | Rdr |26                                                                       |     | REQA
       2244 |       4612 | Tag |04  00                                                                   |     | 
      13168 |      15632 | Rdr |93  20                                                                   |     | ANTICOLL
      16836 |      22660 | Tag |3f  af  e3  54  27                                                       |     | 
      44000 |      54528 | Rdr |93  70  3f  af  e3  54  27  9a  70                                       |  ok | SELECT_UID
      55732 |      59316 | Tag |20  fc  70                                                               |     | 
      67536 |      72240 | Rdr |e0  50  bc  a5                                                           |  ok | RATS
      77348 |      91236 | Tag |0a  78  80  70  02  20  63  cb  b7  80  8b  30                           |  ok | 
     386240 |     412832 | Rdr |02  00  a4  04  00  0e  32  50  41  59  2e  53  59  53  2e  44  44  46   |     | 
            |            |     |30  31  00  e0  42                                                       |  ok | 
     553988 |     553988 | Tag |12  6f  47  84  0e  32  50  41  59  2e  53  59  53  2e  44  44  46  30   |     | 
            |            |     |31  a5  35  bf  0c  32  61  30  4f  07  a0  00  00  00  03  10  10  50   |     | 
            |            |     |10  56  69  73  61  20  20  20  20  20  20  20  20  20  20  20  20  87   |     | 
            |            |     |01  01  9f  0a  08  00  01  05  a1  62                                   |  ok | 
     831536 |     835088 | Rdr |a3  6f  c6                                                               |  ok | 
     838788 |     858436 | Tag |03  02  00  00  00  00  bf  63  04  df  20  01  80  90  00  75  33       |  ok | 
    1226400 |    1244928 | Rdr |02  00  a4  04  00  07  a0  00  00  00  03  10  10  00  56  3f           |  ok | 
    1346804 |    1346804 | Tag |12  6f  51  84  07  a0  00  00  00  03  10  10  a5  46  50  10  56  69   |     | 
            |            |     |73  61  20  20  20  20  20  20  20  20  20  20  20  20  87  01  01  9f   |     | 
            |            |     |38  18  9f  66  04  9f  02  06  9f  03  06  9f  1a  02  95  05  5f  2a   |     | 
            |            |     |02  9a  03  9c  01  9f  37  04  59  8b                                   |  ok | 
    1624336 |    1627888 | Rdr |a3  6f  c6                                                               |  ok | 
    1631700 |    1662932 | Tag |03  bf  0c  13  9f  5a  05  31  08  26  08  26  9f  0a  08  00  01  05   |     | 
            |            |     |02  00  00  00  00  90  00  ea  15                                       |  ok | 
    2226288 |    2226288 | Rdr |02  80  a8  00  00  23  83  21  36  a0  40  00  00  00  00  00  01  00   |     | 
            |            |     |00  00  00  00  00  00  08  26  00  00  00  00  00  08  26  20  02  17   |     | 
            |            |     |00  cd  7f  05  99  00  9a  45                                           |  ok | 
    2674228 |    2678964 | Tag |f2  01  91  40                                                           |     | 
    2699104 |    2703872 | Rdr |f2  01  91  40                                                           |  ok | 
    3028772 |    3028772 | Tag |12  77  47  82  02  20  00  57  13  45  46  38  48  14  38  88  08  d2   |     | 
            |            |     |20  22  01  90  00  03  82  09  43  9f  5f  34  01  02  9f  10  07  06   |     | 
            |            |     |5c  0a  03  a0  00  00  9f  26  08  9a  7f  04  bc  68  b9  18  af  9f   |     | 
            |            |     |27  01  80  9f  36  02  01  61  20  55                                   |  ok | 
    3312720 |    3316272 | Rdr |a3  6f  c6                                                               |  ok | 
    3319972 |    3339684 | Tag |03  9f  6c  02  16  00  9f  6e  04  20  70  00  00  90  00  13  bf       |  ok | 
    3688256 |    3691808 | Rdr |c2  e0  b4                                                               |  ok | RESTORE(224)
    3735812 |    3739332 | Tag |c2  e0  b4                                                               |     | 
