      Start |        End | Src | Data (! denotes parity error)                                           | CRC | Annotation
------------+------------+-----+-------------------------------------------------------------------------+-----+--------------------
          0 |       1056 | Rdr |26                                                                       |     | REQA
       2260 |       4628 | Tag |04  00                                                                   |     | 
      13184 |      15648 | Rdr |93  20                                                                   |     | ANTICOLL
      16852 |      22676 | Tag |3f  af  e3  54  27                                                       |     | 
      44016 |      54544 | Rdr |93  70  3f  af  e3  54  27  9a  70                                       |  ok | SELECT_UID
      55748 |      59332 | Tag |20  fc  70                                                               |     | 
      67552 |      72256 | Rdr |e0  50  bc  a5                                                           |  ok | RATS
      77364 |      91252 | Tag |0a  78  80  70  02  20  63  cb  b7  80  8b  30                           |  ok | 
     386256 |     412848 | Rdr |02  00  a4  04  00  0e  32  50  41  59  2e  53  59  53  2e  44  44  46   |     | 
            |            |     |30  31  00  e0  42                                                       |  ok | 
     529572 |     529572 | Tag |12  6f  47  84  0e  32  50  41  59  2e  53  59  53  2e  44  44  46  30   |     | 
            |            |     |31  a5  35  bf  0c  32  61  30  4f  07  a0  00  00  00  03  10  10  50   |     | 
            |            |     |10  56  69  73  61  20  20  20  20  20  20  20  20  20  20  20  20  87   |     | 
            |            |     |01  01  9f  0a  08  00  01  05  a1  62                                   |  ok | 
     807104 |     810656 | Rdr |a3  6f  c6                                                               |  ok | 
     814356 |     834004 | Tag |03  02  00  00  00  00  bf  63  04  df  20  01  80  90  00  75  33       |  ok | 
    1201968 |    1220496 | Rdr |02  00  a4  04  00  07  a0  00  00  00  03  10  10  00  56  3f           |  ok | 
    1324420 |    1324420 | Tag |12  6f  51  84  07  a0  00  00  00  03  10  10  a5  46  50  10  56  69   |     | 
            |            |     |73  61  20  20  20  20  20  20  20  20  20  20  20  20  87  01  01  9f   |     | 
            |            |     |38  18  9f  66  04  9f  02  06  9f  03  06  9f  1a  02  95  05  5f  2a   |     | 
            |            |     |02  9a  03  9c  01  9f  37  04  59  8b                                   |  ok | 
    1601952 |    1605504 | Rdr |a3  6f  c6                                                               |  ok | 
    1609188 |    1640420 | Tag |03  bf  0c  13  9f  5a  05  31  08  26  08  26  9f  0a  08  00  01  05   |     | 
            |            |     |02  00  00  00  00  90  00  ea  15                                       |  ok | 
    2203776 |    2203776 | Rdr |02  80  a8  00  00  23  83  21  36  a0  40  00  00  00  00  00  01  00   |     | 
            |            |     |00  00  00  00  00  00  08  26  00  00  00  00  00  08  26  20  02  17   |     | 
            |            |     |00  cd  7f  05  99  00  9a  45                                           |  ok | 
    2651716 |    2656452 | Tag |f2  01  91  40                                                           |     | 
    2676720 |    2681488 | Rdr |f2  01  91  40                                                           |  ok | 
    3003444 |    3003444 | Tag |12  77  47  82  02  20  00  57  13  45  46  38  48  14  38  88  08  d2   |     | 
            |            |     |20  22  01  90  00  03  82  09  43  9f  5f  34  01  02  9f  10  07  06   |     | 
            |            |     |5c  0a  03  a0  00  00  9f  26  08  c7  3c  ec  4c  d9  fc  ef  18  9f   |     | 
            |            |     |27  01  80  9f  36  02  01  62  ec  11                                   |  ok | 
    3287392 |    3290944 | Rdr |a3  6f  c6                                                               |  ok | 
    3294628 |    3314340 | Tag |03  9f  6c  02  16  00  9f  6e  04  20  70  00  00  90  00  13  bf       |  ok | 
    3661248 |    3664800 | Rdr |c2  e0  b4                                                               |  ok | RESTORE(224)
    3710612 |    3714132 | Tag |c2  e0  b4                                                               |     | 
   69847536 |   69848592 | Rdr |26                                                                       |     | REQA
   69849796 |   69852164 | Tag |04  00                                                                   |     | 
   69860832 |   69863296 | Rdr |93  20                                                                   |     | ANTICOLL
   69864500 |   69870324 | Tag |3f  af  e3  54  27                                                       |     | 
   69891664 |   69902192 | Rdr |93  70  3f  af  e3  54  27  9a  70                                       |  ok | SELECT_UID
   69903396 |   69906980 | Tag |20  fc  70                                                               |     | 
   69915200 |   69919904 | Rdr |e0  50  bc  a5                                                           |  ok | RATS
   69925012 |   69938900 | Tag |0a  78  80  70  02  20  63  cb  b7  80  8b  30                           |  ok | 
   70234032 |   70260624 | Rdr |02  00  a4  04  00  0e  32  50  41  59  2e  53  59  53  2e  44  44  46   |     | 
            |            |     |30  31  00  e0  42                                                       |  ok | 
   70381556 |   70381556 | Tag |12  6f  47  84  0e  32  50  41  59  2e  53  59  53  2e  44  44  46  30   |     | 
            |            |     |31  a5  35  bf  0c  32  61  30  4f  07  a0  00  00  00  03  10  10  50   |     | 
            |            |     |10  56  69  73  61  20  20  20  20  20  20  20  20  20  20  20  20  87   |     | 
            |            |     |01  01  9f  0a  08  00  01  05  a1  62                                   |  ok | 
   70658976 |   70662528 | Rdr |a3  6f  c6                                                               |  ok | 
   70666228 |   70685876 | Tag |03  02  00  00  00  00  bf  63  04  df  20  01  80  90  00  75  33       |  ok | 
   71052176 |   71070704 | Rdr |02  00  a4  04  00  07  a0  00  00  00  03  10  10  00  56  3f           |  ok | 
   71172836 |   71172836 | Tag |12  6f  51  84  07  a0  00  00  00  03  10  10  a5  46  50  10  56  69   |     | 
            |            |     |73  61  20  20  20  20  20  20  20  20  20  20  20  20  87  01  01  9f   |     | 
            |            |     |38  18  9f  66  04  9f  02  06  9f  03  06  9f  1a  02  95  05  5f  2a   |     | 
            |            |     |02  9a  03  9c  01  9f  37  04  59  8b                                   |  ok | 
   71450240 |   71453792 | Rdr |a3  6f  c6                                                               |  ok | 
   71457476 |   71488708 | Tag |03  bf  0c  13  9f  5a  05  31  08  26  08  26  9f  0a  08  00  01  05   |     | 
            |            |     |02  00  00  00  00  90  00  ea  15                                       |  ok | 
   72052064 |   72052064 | Rdr |02  80  a8  00  00  23  83  21  36  a0  40  00  00  00  00  00  01  00   |     | 
            |            |     |00  00  00  00  00  00  08  26  00  00  00  00  00  08  26  20  02  17   |     | 
            |            |     |00  cd  7f  05  99  00  9a  45                                           |  ok | 
   72500004 |   72504740 | Tag |f2  01  91  40                                                           |     | 
   72524880 |   72529648 | Rdr |f2  01  91  40                                                           |  ok | 
   72849044 |   72849044 | Tag |12  77  47  82  02  20  00  57  13  45  46  38  48  14  38  88  08  d2   |     | 
            |            |     |20  22  01  90  00  03  82  09  43  9f  5f  34  01  02  9f  10  07  06   |     | 
            |            |     |5c  0a  03  a0  00  00  9f  26  08  e8  76  d9  bd  60  45  62  92  9f   |     | 
            |            |     |27  01  80  9f  36  02  01  64  c5  a8                                   |  ok | 
   73132992 |   73136544 | Rdr |a3  6f  c6                                                               |  ok | 
   73140228 |   73159940 | Tag |03  9f  6c  02  16  00  9f  6e  04  20  70  00  00  90  00  13  bf       |  ok | 
   73504416 |   73507968 | Rdr |c2  e0  b4                                                               |  ok | RESTORE(224)
   73554036 |   73557556 | Tag |c2  e0  b4                                                               |     | 
  104835232 |  104836288 | Rdr |26                                                                       |     | REQA
  104837684 |  104837876 | Tag |01                                                                       |     | 
  104848400 |  104850864 | Rdr |93  20                                                                   |     | ANTICOLL
  104852068 |  104857892 | Tag |3f  af  e3  54  27                                                       |     | 
  104879232 |  104889760 | Rdr |93  70  3f  af  e3  54  27  9a  70                                       |  ok | SELECT_UID
  104890964 |  104894548 | Tag |20  fc  70                                                               |     | 
  104902768 |  104907472 | Rdr |e0  50  bc  a5                                                           |  ok | RATS
  104912452 |  104926340 | Tag |0a  78  80  70  02  20  63  cb  b7  80  8b  30                           |  ok | 
  105220576 |  105247168 | Rdr |02  00  a4  04  00  0e  32  50  41  59  2e  53  59  53  2e  44  44  46   |     | 
            |            |     |30  31  00  e0  42                                                       |  ok | 
  105365300 |  105365300 | Tag |12  6f  47  84  0e  32  50  41  59  2e  53  59  53  2e  44  44  46  30   |     | 
            |            |     |31  a5  35  bf  0c  32  61  30  4f  07  a0  00  00  00  03  10  10  50   |     | 
            |            |     |10  56  69  73  61  20  20  20  20  20  20  20  20  20  20  20  20  87   |     | 
            |            |     |01  01  9f  0a  08  00  01  05  a1  62                                   |  ok | 
  105642704 |  105646256 | Rdr |a3  6f  c6                                                               |  ok | 
  105649956 |  105669604 | Tag |03  02  00  00  00  00  bf  63  04  df  20  01  80  90  00  75  33       |  ok | 
  106036800 |  106055328 | Rdr |02  00  a4  04  00  07  a0  00  00  00  03  10  10  00  56  3f           |  ok | 
  106155668 |  106155668 | Tag |12  6f  51  84  07  a0  00  00  00  03  10  10  a5  46  50  10  56  69   |     | 
            |            |     |73  61  20  20  20  20  20  20  20  20  20  20  20  20  87  01  01  9f   |     | 
            |            |     |38  18  9f  66  04  9f  02  06  9f  03  06  9f  1a  02  95  05  5f  2a   |     | 
            |            |     |02  9a  03  9c  01  9f  37  04  59  8b                                   |  ok | 
  106433200 |  106436752 | Rdr |a3  6f  c6                                                               |  ok | 
  106440452 |  106471684 | Tag |03  bf  0c  13  9f  5a  05  31  08  26  08  26  9f  0a  08  00  01  05   |     | 
            |            |     |02  00  00  00  00  90  00  ea  15                                       |  ok | 
  107033376 |  107033376 | Rdr |02  80  a8  00  00  23  83  21  36  a0  40  00  00  00  00  00  01  00   |     | 
            |            |     |00  00  00  00  00  00  08  26  00  00  00  00  00  08  26  20  02  17   |     | 
            |            |     |00  cd  7f  05  99  00  9a  45                                           |  ok | 
  107481316 |  107486052 | Tag |f2  01  91  40                                                           |     | 
  107506192 |  107510960 | Rdr |f2  01  91  40                                                           |  ok | 
  107835204 |  107835204 | Tag |12  77  47  82  02  20  00  57  13  45  46  38  48  14  38  88  08  d2   |     | 
            |            |     |20  22  01  90  00  03  82  09  43  9f  5f  34  01  02  9f  10  07  06   |     | 
            |            |     |5c  0a  03  a0  00  00  9f  26  08  6e  13  40  39  b9  1d  ba  6e  9f   |     | 
            |            |     |27  01  80  9f  36  02  01  65  25  4d                                   |  ok | 
  108119152 |  108122704 | Rdr |a3  6f  c6                                                               |  ok | 
  108126404 |  108146116 | Tag |03  9f  6c  02  16  00  9f  6e  04  20  70  00  00  90  00  13  bf       |  ok | 
  108493792 |  108497344 | Rdr |c2  e0  b4                                                               |  ok | RESTORE(224)
  108541620 |  108545140 | Tag |c2  e0  b4                                                               |     | 
  139719392 |  139720448 | Rdr |26                                                                       |     | REQA
  139721636 |  139724004 | Tag |04  00                                                                   |     | 
  139732560 |  139735024 | Rdr |93  20                                                                   |     | ANTICOLL
  139736228 |  139742052 | Tag |3f  af  e3  54  27                                                       |     | 
  139763392 |  139773920 | Rdr |93  70  3f  af  e3  54  27  9a  70                                       |  ok | SELECT_UID
  139775124 |  139778708 | Tag |20  fc  70                                                               |     | 
  139786928 |  139791632 | Rdr |e0  50  bc  a5                                                           |  ok | RATS
  139796740 |  139810628 | Tag |0a  78  80  70  02  20  63  cb  b7  80  8b  30                           |  ok | 
  140105632 |  140132224 | Rdr |02  00  a4  04  00  0e  32  50  41  59  2e  53  59  53  2e  44  44  46   |     | 
            |            |     |30  31  00  e0  42                                                       |  ok | 
  140247652 |  140247652 | Tag |12  6f  47  84  0e  32  50  41  59  2e  53  59  53  2e  44  44  46  30   |     | 
            |            |     |31  a5  35  bf  0c  32  61  30  4f  07  a0  00  00  00  03  10  10  50   |     | 
            |            |     |10  56  69  73  61  20  20  20  20  20  20  20  20  20  20  20  20  87   |     | 
            |            |     |01  01  9f  0a  08  00  01  05  a1  62                                   |  ok | 
  140525072 |  140528624 | Rdr |a3  6f  c6                                                               |  ok | 
  140532324 |  140551972 | Tag |03  02  00  00  00  00  bf  63  04  df  20  01  80  90  00  75  33       |  ok | 
  140919168 |  140937696 | Rdr |02  00  a4  04  00  07  a0  00  00  00  03  10  10  00  56  3f           |  ok | 
  141038020 |  141038020 | Tag |12  6f  51  84  07  a0  00  00  00  03  10  10  a5  46  50  10  56  69   |     | 
            |            |     |73  61  20  20  20  20  20  20  20  20  20  20  20  20  87  01  01  9f   |     | 
            |            |     |38  18  9f  66  04  9f  02  06  9f  03  06  9f  1a  02  95  05  5f  2a   |     | 
            |            |     |02  9a  03  9c  01  9f  37  04  59  8b                                   |  ok | 
  141315552 |  141319104 | Rdr |a3  6f  c6                                                               |  ok | 
  141322804 |  141354036 | Tag |03  bf  0c  13  9f  5a  05  31  08  26  08  26  9f  0a  08  00  01  05   |     | 
            |            |     |02  00  00  00  00  90  00  ea  15                                       |  ok | 
  141917264 |  141917264 | Rdr |02  80  a8  00  00  23  83  21  36  a0  40  00  00  00  00  00  01  00   |     | 
            |            |     |00  00  00  00  00  00  08  26  00  00  00  00  00  08  26  20  02  17   |     | 
            |            |     |00  cd  7f  05  99  00  9a  45                                           |  ok | 
  142365204 |  142369940 | Tag |f2  01  91  40                                                           |     | 
  142390080 |  142394848 | Rdr |f2  01  91  40                                                           |  ok | 
  142726644 |  142726644 | Tag |12  77  47  82  02  20  00  57  13  45  46  38  48  14  38  88  08  d2   |     | 
            |            |     |20  22  01  90  00  03  82  09  43  9f  5f  34  01  02  9f  10  07  06   |     | 
            |            |     |5c  0a  03  a0  00  00  9f  26  08  86  7f  07  0f  3d  66  0d  1a  9f   |     | 
            |            |     |27  01  80  9f  36  02  01  66  73  33                                   |  ok | 
  143010592 |  143014144 | Rdr |a3  6f  c6                                                               |  ok | 
  143017844 |  143037556 | Tag |03  9f  6c  02  16  00  9f  6e  04  20  70  00  00  90  00  13  bf       |  ok | 
  143388432 |  143391984 | Rdr |c2  e0  b4                                                               |  ok | RESTORE(224)
  143434852 |  143438372 | Tag |c2  e0  b4                                                               |     | 
  174665696 |  174666752 | Rdr |26                                                                       |     | REQA
  174667956 |  174670324 | Tag |04  00                                                                   |     | 
  174679008 |  174681472 | Rdr |93  20                                                                   |     | ANTICOLL
  174682660 |  174688484 | Tag |3f  af  e3  54  27                                                       |     | 
  174709840 |  174720368 | Rdr |93  70  3f  af  e3  54  27  9a  70                                       |  ok | SELECT_UID
  174721556 |  174725140 | Tag |20  fc  70                                                               |     | 
  174733376 |  174738080 | Rdr |e0  50  bc  a5                                                           |  ok | RATS
  174743188 |  174757076 | Tag |0a  78  80  70  02  20  63  cb  b7  80  8b  30                           |  ok | 
  175052208 |  175078800 | Rdr |02  00  a4  04  00  0e  32  50  41  59  2e  53  59  53  2e  44  44  46   |     | 
            |            |     |30  31  00  e0  42                                                       |  ok | 
  175198852 |  175198852 | Tag |12  6f  47  84  0e  32  50  41  59  2e  53  59  53  2e  44  44  46  30   |     | 
            |            |     |31  a5  35  bf  0c  32  61  30  4f  07  a0  00  00  00  03  10  10  50   |     | 
            |            |     |10  56  69  73  61  20  20  20  20  20  20  20  20  20  20  20  20  87   |     | 
            |            |     |01  01  9f  0a  08  00  01  05  a1  62                                   |  ok | 
  175476384 |  175479936 | Rdr |a3  6f  c6                                                               |  ok | 
  175483636 |  175503284 | Tag |03  02  00  00  00  00  bf  63  04  df  20  01  80  90  00  75  33       |  ok | 
  175870480 |  175889008 | Rdr |02  00  a4  04  00  07  a0  00  00  00  03  10  10  00  56  3f           |  ok | 
  175991764 |  175991764 | Tag |12  6f  51  84  07  a0  00  00  00  03  10  10  a5  46  50  10  56  69   |     | 
            |            |     |73  61  20  20  20  20  20  20  20  20  20  20  20  20  87  01  01  9f   |     | 
            |            |     |38  18  9f  66  04  9f  02  06  9f  03  06  9f  1a  02  95  05  5f  2a   |     | 
            |            |     |02  9a  03  9c  01  9f  37  04  59  8b                                   |  ok | 
  176269312 |  176272864 | Rdr |a3  6f  c6                                                               |  ok | 
  176276548 |  176307780 | Tag |03  bf  0c  13  9f  5a  05  31  08  26  08  26  9f  0a  08  00  01  05   |     | 
            |            |     |02  00  00  00  00  90  00  ea  15                                       |  ok | 
  176871136 |  176871136 | Rdr |02  80  a8  00  00  23  83  21  36  a0  40  00  00  00  00  00  01  00   |     | 
            |            |     |00  00  00  00  00  00  08  26  00  00  00  00  00  08  26  20  02  17   |     | 
            |            |     |00  cd  7f  05  99  00  9a  45                                           |  ok | 
  177319076 |  177323812 | Tag |f2  01  91  40                                                           |     | 
  177343952 |  177348720 | Rdr |f2  01  91  40                                                           |  ok | 
  177667860 |  177667860 | Tag |12  77  47  82  02  20  00  57  13  45  46  38  48  14  38  88  08  d2   |     | 
            |            |     |20  22  01  90  00  03  82  09  43  9f  5f  34  01  02  9f  10  07  06   |     | 
            |            |     |5c  0a  03  a0  00  00  9f  26  08  29  ff  ea  09  43  27  5e  bc  9f   |     | 
            |            |     |27  01  80  9f  36  02  01  67  12  bc                                   |  ok | 
  177951792 |  177955344 | Rdr |a3  6f  c6                                                               |  ok | 
  177959044 |  177978756 | Tag |03  9f  6c  02  16  00  9f  6e  04  20  70  00  00  90  00  13  bf       |  ok | 
  178327968 |  178331520 | Rdr |c2  e0  b4                                                               |  ok | RESTORE(224)
  178376948 |  178380468 | Tag |c2  e0  b4                                                               |     | 
  209685664 |  209686720 | Rdr |26                                                                       |     | REQA
  209687924 |  209690292 | Tag |04  00                                                                   |     | 
  209698960 |  209701424 | Rdr |93  20                                                                   |     | ANTICOLL
  209702628 |  209708452 | Tag |3f  af  e3  54  27                                                       |     | 
  209729792 |  209740320 | Rdr |93  70  3f  af  e3  54  27  9a  70                                       |  ok | SELECT_UID
  209741524 |  209745108 | Tag |20  fc  70                                                               |     | 
  209753344 |  209758048 | Rdr |e0  50  bc  a5                                                           |  ok | RATS
  209763028 |  209776916 | Tag |0a  78  80  70  02  20  63  cb  b7  80  8b  30                           |  ok | 
  210073584 |  210100176 | Rdr |02  00  a4  04  00  0e  32  50  41  59  2e  53  59  53  2e  44  44  46   |     | 
            |            |     |30  31  00  e0  42                                                       |  ok | 
  210215716 |  210215716 | Tag |12  6f  47  84  0e  32  50  41  59  2e  53  59  53  2e  44  44  46  30   |     | 
            |            |     |31  a5  35  bf  0c  32  61  30  4f  07  a0  00  00  00  03  10  10  50   |     | 
            |            |     |10  56  69  73  61  20  20  20  20  20  20  20  20  20  20  20  20  87   |     | 
            |            |     |01  01  9f  0a  08  00  01  05  a1  62                                   |  ok | 
  210493136 |  210496688 | Rdr |a3  6f  c6                                                               |  ok | 
  210500388 |  210520036 | Tag |03  02  00  00  00  00  bf  63  04  df  20  01  80  90  00  75  33       |  ok | 
  210889536 |  210908064 | Rdr |02  00  a4  04  00  07  a0  00  00  00  03  10  10  00  56  3f           |  ok | 
  211007892 |  211007892 | Tag |12  6f  51  84  07  a0  00  00  00  03  10  10  a5  46  50  10  56  69   |     | 
            |            |     |73  61  20  20  20  20  20  20  20  20  20  20  20  20  87  01  01  9f   |     | 
            |            |     |38  18  9f  66  04  9f  02  06  9f  03  06  9f  1a  02  95  05  5f  2a   |     | 
            |            |     |02  9a  03  9c  01  9f  37  04  59  8b                                   |  ok | 
  211285424 |  211288976 | Rdr |a3  6f  c6                                                               |  ok | 
  211292676 |  211323908 | Tag |03  bf  0c  13  9f  5a  05  31  08  26  08  26  9f  0a  08  00  01  05   |     | 
            |            |     |02  00  00  00  00  90  00  ea  15                                       |  ok | 
  211887136 |  211887136 | Rdr |02  80  a8  00  00  23  83  21  36  a0  40  00  00  00  00  00  01  00   |     | 
            |            |     |00  00  00  00  00  00  08  26  00  00  00  00  00  08  26  20  02  17   |     | 
            |            |     |00  cd  7f  05  99  00  9a  45                                           |  ok | 
  212335060 |  212339796 | Tag |f2  01  91  40                                                           |     | 
  212360064 |  212364832 | Rdr |f2  01  91  40                                                           |  ok | 
  212694980 |  212694980 | Tag |12  77  47  82  02  20  00  57  13  45  46  38  48  14  38  88  08  d2   |     | 
            |            |     |20  22  01  90  00  03  82  09  43  9f  5f  34  01  02  9f  10  07  06   |     | 
            |            |     |5c  0a  03  a0  00  00  9f  26  08  ed  85  0b  07  c3  13  69  34  9f   |     | 
            |            |     |27  01  80  9f  36  02  01  68  5b  1d                                   |  ok | 
  212978928 |  212982480 | Rdr |a3  6f  c6                                                               |  ok | 
  212986180 |  213005892 | Tag |03  9f  6c  02  16  00  9f  6e  04  20  70  00  00  90  00  13  bf       |  ok | 
  213355216 |  213358768 | Rdr |c2  e0  b4                                                               |  ok | RESTORE(224)
  213401636 |  213405156 | Tag |c2  e0  b4                                                               |     | 
  253590240 |  253591296 | Rdr |26                                                                       |     | REQA
  253592500 |  253594868 | Tag |04  00                                                                   |     | 
  253603408 |  253605872 | Rdr |93  20                                                                   |     | ANTICOLL
  253607076 |  253612900 | Tag |3f  af  e3  54  27                                                       |     | 
  253634240 |  253644768 | Rdr |93  70  3f  af  e3  54  27  9a  70                                       |  ok | SELECT_UID
  253645972 |  253649556 | Tag |20  fc  70                                                               |     | 
  253657792 |  253662496 | Rdr |e0  50  bc  a5                                                           |  ok | RATS
  253667588 |  253681476 | Tag |0a  78  80  70  02  20  63  cb  b7  80  8b  30                           |  ok | 
  253976608 |  254003200 | Rdr |02  00  a4  04  00  0e  32  50  41  59  2e  53  59  53  2e  44  44  46   |     | 
            |            |     |30  31  00  e0  42                                                       |  ok | 
  254120932 |  254120932 | Tag |12  6f  47  84  0e  32  50  41  59  2e  53  59  53  2e  44  44  46  30   |     | 
            |            |     |31  a5  35  bf  0c  32  61  30  4f  07  a0  00  00  00  03  10  10  50   |     | 
            |            |     |10  56  69  73  61  20  20  20  20  20  20  20  20  20  20  20  20  87   |     | 
            |            |     |01  01  9f  0a  08  00  01  05  a1  62                                   |  ok | 
  254398480 |  254402032 | Rdr |a3  6f  c6                                                               |  ok | 
  254405732 |  254425380 | Tag |03  02  00  00  00  00  bf  63  04  df  20  01  80  90  00  75  33       |  ok | 
  254792448 |  254810976 | Rdr |02  00  a4  04  00  07  a0  00  00  00  03  10  10  00  56  3f           |  ok | 
  254910916 |  254910916 | Tag |12  6f  51  84  07  a0  00  00  00  03  10  10  a5  46  50  10  56  69   |     | 
            |            |     |73  61  20  20  20  20  20  20  20  20  20  20  20  20  87  01  01  9f   |     | 
            |            |     |38  18  9f  66  04  9f  02  06  9f  03  06  9f  1a  02  95  05  5f  2a   |     | 
            |            |     |02  9a  03  9c  01  9f  37  04  59  8b                                   |  ok | 
  255188336 |  255191888 | Rdr |a3  6f  c6                                                               |  ok | 
  255195588 |  255226820 | Tag |03  bf  0c  13  9f  5a  05  31  08  26  08  26  9f  0a  08  00  01  05   |     | 
            |            |     |02  00  00  00  00  90  00  ea  15                                       |  ok | 
  255789392 |  255789392 | Rdr |02  80  a8  00  00  23  83  21  36  a0  40  00  00  00  00  00  01  00   |     | 
            |            |     |00  00  00  00  00  00  08  26  00  00  00  00  00  08  26  20  02  17   |     | 
            |            |     |00  cd  7f  05  99  00  9a  45                                           |  ok | 
  256237332 |  256242068 | Tag |f2  01  91  40                                                           |     | 
  256262336 |  256267104 | Rdr |f2  01  91  40                                                           |  ok | 
  256597124 |  256597124 | Tag |12  77  47  82  02  20  00  57  13  45  46  38  48  14  38  88  08  d2   |     | 
            |            |     |20  22  01  90  00  03  82  09  43  9f  5f  34  01  02  9f  10  07  06   |     | 
            |            |     |5c  0a  03  a0  00  00  9f  26  08  48  e4  1c  d2  fa  83  5a  a3  9f   |     | 
            |            |     |27  01  80  9f  36  02  01  69  ae  30                                   |  ok | 
  256881056 |  256884608 | Rdr |a3  6f  c6                                                               |  ok | 
  256888308 |  256908020 | Tag |03  9f  6c  02  16  00  9f  6e  04  20  70  00  00  90  00  13  bf       |  ok | 
  257256592 |  257260144 | Rdr |c2  e0  b4                                                               |  ok | RESTORE(224)
  257305828 |  257309348 | Tag |c2  e0  b4                                                               |     | 
  288458880 |  288459936 | Rdr |26                                                                       |     | REQA
  288461140 |  288463508 | Tag |04  00                                                                   |     | 
  288472176 |  288474640 | Rdr |93  20                                                                   |     | ANTICOLL
  288475844 |  288481668 | Tag |3f  af  e3  54  27                                                       |     | 
  288503008 |  288513536 | Rdr |93  70  3f  af  e3  54  27  9a  70                                       |  ok | SELECT_UID
  288514740 |  288518324 | Tag |20  fc  70                                                               |     | 
  288526560 |  288531264 | Rdr |e0  50  bc  a5                                                           |  ok | RATS
  288536372 |  288550260 | Tag |0a  78  80  70  02  20  63  cb  b7  80  8b  30                           |  ok | 
  288844480 |  288871072 | Rdr |02  00  a4  04  00  0e  32  50  41  59  2e  53  59  53  2e  44  44  46   |     | 
            |            |     |30  31  00  e0  42                                                       |  ok | 
  288991124 |  288991124 | Tag |12  6f  47  84  0e  32  50  41  59  2e  53  59  53  2e  44  44  46  30   |     | 
            |            |     |31  a5  35  bf  0c  32  61  30  4f  07  a0  00  00  00  03  10  10  50   |     | 
            |            |     |10  56  69  73  61  20  20  20  20  20  20  20  20  20  20  20  20  87   |     | 
            |            |     |01  01  9f  0a  08  00  01  05  a1  62                                   |  ok | 
  289268656 |  289272208 | Rdr |a3  6f  c6                                                               |  ok | 
  289275908 |  289295556 | Tag |03  02  00  00  00  00  bf  63  04  df  20  01  80  90  00  75  33       |  ok | 
  289663520 |  289682048 | Rdr |02  00  a4  04  00  07  a0  00  00  00  03  10  10  00  56  3f           |  ok | 
  289783156 |  289783156 | Tag |12  6f  51  84  07  a0  00  00  00  03  10  10  a5  46  50  10  56  69   |     | 
            |            |     |73  61  20  20  20  20  20  20  20  20  20  20  20  20  87  01  01  9f   |     | 
            |            |     |38  18  9f  66  04  9f  02  06  9f  03  06  9f  1a  02  95  05  5f  2a   |     | 
            |            |     |02  9a  03  9c  01  9f  37  04  59  8b                                   |  ok | 
  290060688 |  290064240 | Rdr |a3  6f  c6                                                               |  ok | 
  290067940 |  290099172 | Tag |03  bf  0c  13  9f  5a  05  31  08  26  08  26  9f  0a  08  00  01  05   |     | 
            |            |     |02  00  00  00  00  90  00  ea  15                                       |  ok | 
  290659328 |  290659328 | Rdr |02  80  a8  00  00  23  83  21  36  a0  40  00  00  00  00  00  01  00   |     | 
            |            |     |00  00  00  00  00  00  08  26  00  00  00  00  00  08  26  20  02  17   |     | 
            |            |     |00  cd  7f  05  99  00  9a  45                                           |  ok | 
  291107268 |  291112004 | Tag |f2  01  91  40                                                           |     | 
  291132144 |  291136912 | Rdr |f2  01  91  40                                                           |  ok | 
  291456548 |  291456548 | Tag |12  77  47  82  02  20  00  57  13  45  46  38  48  14  38  88  08  d2   |     | 
            |            |     |20  22  01  90  00  03  82  09  43  9f  5f  34  01  02  9f  10  07  06   |     | 
            |            |     |5c  0a  03  a0  00  00  9f  26  08  f9  90  22  8d  0b  99  27  5d  9f   |     | 
            |            |     |27  01  80  9f  36  02  01  6a  92  a3                                   |  ok | 
  291740496 |  291744048 | Rdr |a3  6f  c6                                                               |  ok | 
  291747748 |  291767460 | Tag |03  9f  6c  02  16  00  9f  6e  04  20  70  00  00  90  00  13  bf       |  ok | 
  292116032 |  292119584 | Rdr |c2  e0  b4                                                               |  ok | RESTORE(224)
  292163604 |  292167124 | Tag |c2  e0  b4                                                               |     | 
  323420800 |  323421856 | Rdr |26                                                                       |     | REQA
  323423044 |  323425412 | Tag |04  00                                                                   |     | 
  323434096 |  323436560 | Rdr |93  20                                                                   |     | ANTICOLL
  323437764 |  323443588 | Tag |3f  af  e3  54  27                                                       |     | 
  323464928 |  323475456 | Rdr |93  70  3f  af  e3  54  27  9a  70                                       |  ok | SELECT_UID
  323476660 |  323480244 | Tag |20  fc  70                                                               |     | 
  323488464 |  323493168 | Rdr |e0  50  bc  a5                                                           |  ok | RATS
  323498148 |  323512036 | Tag |0a  78  80  70  02  20  63  cb  b7  80  8b  30                           |  ok | 
  323806400 |  323832992 | Rdr |02  00  a4  04  00  0e  32  50  41  59  2e  53  59  53  2e  44  44  46   |     | 
            |            |     |30  31  00  e0  42                                                       |  ok | 
  323954820 |  323954820 | Tag |12  6f  47  84  0e  32  50  41  59  2e  53  59  53  2e  44  44  46  30   |     | 
            |            |     |31  a5  35  bf  0c  32  61  30  4f  07  a0  00  00  00  03  10  10  50   |     | 
            |            |     |10  56  69  73  61  20  20  20  20  20  20  20  20  20  20  20  20  87   |     | 
            |            |     |01  01  9f  0a  08  00  01  05  a1  62                                   |  ok | 
  324232240 |  324235792 | Rdr |a3  6f  c6                                                               |  ok | 
  324239492 |  324259140 | Tag |03  02  00  00  00  00  bf  63  04  df  20  01  80  90  00  75  33       |  ok | 
  324626336 |  324644864 | Rdr |02  00  a4  04  00  07  a0  00  00  00  03  10  10  00  56  3f           |  ok | 
  324747348 |  324747348 | Tag |12  6f  51  84  07  a0  00  00  00  03  10  10  a5  46  50  10  56  69   |     | 
            |            |     |73  61  20  20  20  20  20  20  20  20  20  20  20  20  87  01  01  9f   |     | 
            |            |     |38  18  9f  66  04  9f  02  06  9f  03  06  9f  1a  02  95  05  5f  2a   |     | 
            |            |     |02  9a  03  9c  01  9f  37  04  59  8b                                   |  ok | 
  325024896 |  325028448 | Rdr |a3  6f  c6                                                               |  ok | 
  325032148 |  325063380 | Tag |03  bf  0c  13  9f  5a  05  31  08  26  08  26  9f  0a  08  00  01  05   |     | 
            |            |     |02  00  00  00  00  90  00  ea  15                                       |  ok | 
  325624304 |  325624304 | Rdr |02  80  a8  00  00  23  83  21  36  a0  40  00  00  00  00  00  01  00   |     | 
            |            |     |00  00  00  00  00  00  08  26  00  00  00  00  00  08  26  20  02  17   |     | 
            |            |     |00  cd  7f  05  99  00  9a  45                                           |  ok | 
  326072244 |  326076980 | Tag |f2  01  91  40                                                           |     | 
  326097120 |  326101888 | Rdr |f2  01  91  40                                                           |  ok | 
  326424356 |  326424356 | Tag |12  77  47  82  02  20  00  57  13  45  46  38  48  14  38  88  08  d2   |     | 
            |            |     |20  22  01  90  00  03  82  09  43  9f  5f  34  01  02  9f  10  07  06   |     | 
            |            |     |5c  0a  03  a0  00  00  9f  26  08  b7  b6  bc  7a  af  10  5c  1f  9f   |     | 
            |            |     |27  01  80  9f  36  02  01  6b  ee  e5                                   |  ok | 
  326708288 |  326711840 | Rdr |a3  6f  c6                                                               |  ok | 
  326715540 |  326735252 | Tag |03  9f  6c  02  16  00  9f  6e  04  20  70  00  00  90  00  13  bf       |  ok | 
  327082928 |  327086480 | Rdr |c2  e0  b4                                                               |  ok | RESTORE(224)