      Start |        End | Src | Data (! denotes parity error)                                           | CRC | Annotation
------------+------------+-----+-------------------------------------------------------------------------+-----+--------------------
          0 |       1056 | Rdr |26                                                                       |     | REQA
       2244 |       4612 | Tag |04  00                                                                   |     | 
      13312 |      15776 | Rdr |93  20                                                                   |     | ANTICOLL
      16948 |      22772 | Tag |3f  af  e3  54  27                                                       |     | 
      44144 |      54672 | Rdr |93  70  3f  af  e3  54  27  9a  70                                       |  ok | SELECT_UID
      55860 |      59444 | Tag |20  fc  70                                                               |     | 
      67696 |      72400 | Rdr |e0  50  bc  a5                                                           |  ok | RATS
      77748 |      91636 | Tag |0a  78  80  70  02  20  63  cb  b7  80  8b  30                           |  ok | 
     386784 |     413376 | Rdr |02  00  a4  04  00  0e  32  50  41  59  2e  53  59  53  2e  44  44  46   |     | 
            |            |     |30  31  00  e0  42                                                       |  ok | 
     553636 |     553636 | Tag |12  6f  47  84  0e  32  50  41  59  2e  53  59  53  2e  44  44  46  30   |     | 
            |            |     |31  a5  35  bf  0c  32  61  30  4f  07  a0  00  00  00  03  10  10  50   |     | 
            |            |     |10  56  69  73  61  20  20  20  20  20  20  20  20  20  20  20  20  87   |     | 
            |            |     |01  01  9f  0a  08  00  01  05  a1  62                                   |  ok | 
     831184 |     834736 | Rdr |a3  6f  c6                                                               |  ok | 
     839188 |     858836 | Tag |03  02  00  00  00  00  bf  63  04  df  20  01  80  90  00  75  33       |  ok | 
    1227584 |    1246112 | Rdr |02  00  a4  04  00  07  a0  00  00  00  03  10  10  00  56  3f           |  ok | 
    1378564 |    1378564 | Tag |12  6f  51  84  07  a0  00  00  00  03  10  10  a5  46  50  10  56  69   |     | 
            |            |     |73  61  20  20  20  20  20  20  20  20  20  20  20  20  87  01  01  9f   |     | 
            |            |     |38  18  9f  66  04  9f  02  06  9f  03  06  9f  1a  02  95  05  5f  2a   |     | 
            |            |     |02  9a  03  9c  01  9f  37  04  59  8b                                   |  ok | 
    1656112 |    1659664 | Rdr |a3  6f  c6                                                               |  ok | 
    1664100 |    1695332 | Tag |03  bf  0c  13  9f  5a  05  31  08  26  08  26  9f  0a  08  00  01  05   |     | 
            |            |     |02  00  00  00  00  90  00  ea  15                                       |  ok | 
    2258720 |    2258720 | Rdr |02  80  a8  00  00  23  83  21  36  a0  40  00  00  00  00  00  01  00   |     | 
            |            |     |00  00  00  00  00  00  08  26  00  00  00  00  00  08  26  20  02  17   |     | 
            |            |     |00  cd  7f  05  99  00  9a  45                                           |  ok | 
    2707540 |    2712276 | Tag |f2  01  91  40                                                           |     | 
    2732432 |    2737200 | Rdr |f2  01  91  40                                                           |  ok | 
    3133908 |    3133908 | Tag |12  77  47  82  02  20  00  57  13  45  46  38  48  14  38  88  08  d2   |     | 
            |            |     |20  22  01  90  00  03  82  09  43  9f  5f  34  01  02  9f  10  07  06   |     | 
            |            |     |5c  0a  03  a0  00  00  9f  26  08  39  07  65  3b  60  4a  03  5e  9f   |     | 
            |            |     |27  01  80  9f  36  02  04  9f  ba  e8                                   |  ok | 
    3417840 |    3421392 | Rdr |a3  6f  c6                                                               |  ok | 
    3425844 |    3445556 | Tag |03  9f  6c  02  16  00  9f  6e  04  20  70  00  00  90  00  13  bf       |  ok | 
    3794016 |    3797568 | Rdr |c2  e0  b4                                                               |  ok | RESTORE(224)
    3846820 |    3850340 | Tag |c2  e0  b4                                                               |     | 
   34686672 |   34687728 | Rdr |26                                                                       |     | REQA
   34688900 |   34691268 | Tag |04  00                                                                   |     | 
   34699968 |   34702432 | Rdr |93  20                                                                   |     | ANTICOLL
   34703620 |   34709444 | Tag |3f  af  e3  54  27                                                       |     | 
   34730816 |   34741344 | Rdr |93  70  3f  af  e3  54  27  9a  70                                       |  ok | SELECT_UID
   34742516 |   34746100 | Tag |20  fc  70                                                               |     | 
   34754352 |   34759056 | Rdr |e0  50  bc  a5                                                           |  ok | RATS
   34764404 |   34778292 | Tag |0a  78  80  70  02  20  63  cb  b7  80  8b  30                           |  ok | 
   35074224 |   35100816 | Rdr |02  00  a4  04  00  0e  32  50  41  59  2e  53  59  53  2e  44  44  46   |     | 
            |            |     |30  31  00  e0  42                                                       |  ok | 
   35240820 |   35240820 | Tag |12  6f  47  84  0e  32  50  41  59  2e  53  59  53  2e  44  44  46  30   |     | 
            |            |     |31  a5  35  bf  0c  32  61  30  4f  07  a0  00  00  00  03  10  10  50   |     | 
            |            |     |10  56  69  73  61  20  20  20  20  20  20  20  20  20  20  20  20  87   |     | 
            |            |     |01  01  9f  0a  08  00  01  05  a1  62                                   |  ok | 
   35518352 |   35521904 | Rdr |a3  6f  c6                                                               |  ok | 
   35526356 |   35546004 | Tag |03  02  00  00  00  00  bf  63  04  df  20  01  80  90  00  75  33       |  ok | 
   35914752 |   35933280 | Rdr |02  00  a4  04  00  07  a0  00  00  00  03  10  10  00  56  3f           |  ok | 
   36064324 |   36064324 | Tag |12  6f  51  84  07  a0  00  00  00  03  10  10  a5  46  50  10  56  69   |     | 
            |            |     |73  61  20  20  20  20  20  20  20  20  20  20  20  20  87  01  01  9f   |     | 
            |            |     |38  18  9f  66  04  9f  02  06  9f  03  06  9f  1a  02  95  05  5f  2a   |     | 
            |            |     |02  9a  03  9c  01  9f  37  04  59  8b                                   |  ok | 
   36341872 |   36345424 | Rdr |a3  6f  c6                                                               |  ok | 
   36349876 |   36381108 | Tag |03  bf  0c  13  9f  5a  05  31  08  26  08  26  9f  0a  08  00  01  05   |     | 
            |            |     |02  00  00  00  00  90  00  ea  15                                       |  ok | 
   36942816 |   36942816 | Rdr |02  80  a8  00  00  23  83  21  36  a0  40  00  00  00  00  00  01  00   |     | 
            |            |     |00  00  00  00  00  00  08  26  00  00  00  00  00  08  26  20  02  17   |     | 
            |            |     |00  cd  7f  05  99  00  9a  45                                           |  ok | 
   37391636 |   37396372 | Tag |f2  01  91  40                                                           |     | 
   37416640 |   37421408 | Rdr |f2  01  91  40                                                           |  ok | 
   37818116 |   37822852 | Tag |f2  01  91  40                                                           |     | 
   37849536 |   37854304 | Rdr |f2  01  91  40                                                           |  ok | 
   37861748 |   37861748 | Tag |12  77  47  82  02  20  00  57  13  45  46  38  48  14  38  88  08  d2   |     | 
            |            |     |20  22  01  90  00  03  82  09  43  9f  5f  34  01  02  9f  10  07  06   |     | 
            |            |     |5c  0a  03  a0  00  00  9f  26  08  62  94  76  2d  12  7b  40  ee  9f   |     | 
            |            |     |27  01  80  9f  36  02  04  a0  bf  d4                                   |  ok | 
   38145696 |   38149248 | Rdr |a3  6f  c6                                                               |  ok | 
   38153700 |   38173412 | Tag |03  9f  6c  02  16  00  9f  6e  04  20  70  00  00  90  00  13  bf       |  ok | 
   38524304 |   38527856 | Rdr |c2  e0  b4                                                               |  ok | RESTORE(224)
   38577364 |   38580884 | Tag |c2  e0  b4                                                               |     | 
   69932832 |   69933888 | Rdr |26                                                                       |     | REQA
   69935076 |   69937444 | Tag |04  00                                                                   |     | 
   69946128 |   69948592 | Rdr |93  20                                                                   |     | ANTICOLL
   69949780 |   69955604 | Tag |3f  af  e3  54  27                                                       |     | 
   69976976 |   69987504 | Rdr |93  70  3f  af  e3  54  27  9a  70                                       |  ok | SELECT_UID
   69988692 |   69992276 | Tag |20  fc  70                                                               |     | 
   70000512 |   70005216 | Rdr |e0  50  bc  a5                                                           |  ok | RATS
   70010692 |   70024580 | Tag |0a  78  80  70  02  20  63  cb  b7  80  8b  30                           |  ok | 
   70319728 |   70346320 | Rdr |02  00  a4  04  00  0e  32  50  41  59  2e  53  59  53  2e  44  44  46   |     | 
            |            |     |30  31  00  e0  42                                                       |  ok | 
   70481076 |   70481076 | Tag |12  6f  47  84  0e  32  50  41  59  2e  53  59  53  2e  44  44  46  30   |     | 
            |            |     |31  a5  35  bf  0c  32  61  30  4f  07  a0  00  00  00  03  10  10  50   |     | 
            |            |     |10  56  69  73  61  20  20  20  20  20  20  20  20  20  20  20  20  87   |     | 
            |            |     |01  01  9f  0a  08  00  01  05  a1  62                                   |  ok | 
   70758624 |   70762176 | Rdr |a3  6f  c6                                                               |  ok | 
   70766628 |   70786276 | Tag |03  02  00  00  00  00  bf  63  04  df  20  01  80  90  00  75  33       |  ok | 
   71155920 |   71174448 | Rdr |02  00  a4  04  00  07  a0  00  00  00  03  10  10  00  56  3f           |  ok | 
   71305492 |   71305492 | Tag |12  6f  51  84  07  a0  00  00  00  03  10  10  a5  46  50  10  56  69   |     | 
            |            |     |73  61  20  20  20  20  20  20  20  20  20  20  20  20  87  01  01  9f   |     | 
            |            |     |38  18  9f  66  04  9f  02  06  9f  03  06  9f  1a  02  95  05  5f  2a   |     | 
            |            |     |02  9a  03  9c  01  9f  37  04  59  8b                                   |  ok | 
   71583040 |   71586592 | Rdr |a3  6f  c6                                                               |  ok | 
   71591044 |   71622276 | Tag |03  bf  0c  13  9f  5a  05  31  08  26  08  26  9f  0a  08  00  01  05   |     | 
            |            |     |02  00  00  00  00  90  00  ea  15                                       |  ok | 
   72188064 |   72188064 | Rdr |02  80  a8  00  00  23  83  21  36  a0  40  00  00  00  00  00  01  00   |     | 
            |            |     |00  00  00  00  00  00  08  26  00  00  00  00  00  08  26  20  02  17   |     | 
            |            |     |00  cd  7f  05  99  00  9a  45                                           |  ok | 
   72636900 |   72641636 | Tag |f2  01  91  40                                                           |     | 
   72661904 |   72666672 | Rdr |f2  01  91  40                                                           |  ok | 
   73063764 |   73068500 | Tag |f2  01  91  40                                                           |     | 
   73095040 |   73099808 | Rdr |f2  01  91  40                                                           |  ok | 
   73109572 |   73109572 | Tag |12  77  47  82  02  20  00  57  13  45  46  38  48  14  38  88  08  d2   |     | 
            |            |     |20  22  01  90  00  03  82  09  43  9f  5f  34  01  02  9f  10  07  06   |     | 
            |            |     |5c  0a  03  a0  00  00  9f  26  08  f4  1c  40  da  d0  60  c6  b0  9f   |     | 
            |            |     |27  01  80  9f  36  02  04  a1  6f  5c                                   |  ok | 
   73393520 |   73397072 | Rdr |a3  6f  c6                                                               |  ok | 
   73401524 |   73421236 | Tag |03  9f  6c  02  16  00  9f  6e  04  20  70  00  00  90  00  13  bf       |  ok | 
   73771360 |   73774912 | Rdr |c2  e0  b4                                                               |  ok | RESTORE(224)
   73823268 |   73826532 | Tag |c2  e0  b4                                                               |     | 
  175651312 |  175652368 | Rdr |26                                                                       |     | REQA
  175653540 |  175655908 | Tag |04  00                                                                   |     | 
  175664608 |  175667072 | Rdr |93  20                                                                   |     | ANTICOLL
  175668388 |  175674084 | Tag |3f  af  e3  54  27                                                       |     | 
  175695440 |  175705968 | Rdr |93  70  3f  af  e3  54  27  9a  70                                       |  ok | SELECT_UID
  175707156 |  175710740 | Tag |20  fc  70                                                               |     | 
  175718992 |  175723696 | Rdr |e0  50  bc  a5                                                           |  ok | RATS
  175729044 |  175742932 | Tag |0a  78  80  70  02  20  63  cb  b7  80  8b  30                           |  ok | 
  176044480 |  176071072 | Rdr |02  00  a4  04  00  0e  32  50  41  59  2e  53  59  53  2e  44  44  46   |     | 
            |            |     |30  31  00  e0  42                                                       |  ok | 
  176209668 |  176209668 | Tag |12  6f  47  84  0e  32  50  41  59  2e  53  59  53  2e  44  44  46  30   |     | 
            |            |     |31  a5  35  bf  0c  32  61  30  4f  07  a0  00  00  00  03  10  10  50   |     | 
            |            |     |10  56  69  73  61  20  20  20  20  20  20  20  20  20  20  20  20  87   |     | 
            |            |     |01  01  9f  0a  08  00  01  05  a1  62                                   |  ok | 
  176487216 |  176490768 | Rdr |a3  6f  c6                                                               |  ok | 
  176495220 |  176514868 | Tag |03  02  00  00  00  00  bf  63  04  df  20  01  80  90  00  75  33       |  ok | 
  176885280 |  176903808 | Rdr |02  00  a4  04  00  07  a0  00  00  00  03  10  10  00  56  3f           |  ok | 
  177033700 |  177033700 | Tag |12  6f  51  84  07  a0  00  00  00  03  10  10  a5  46  50  10  56  69   |     | 
            |            |     |73  61  20  20  20  20  20  20  20  20  20  20  20  20  87  01  01  9f   |     | 
            |            |     |38  18  9f  66  04  9f  02  06  9f  03  06  9f  1a  02  95  05  5f  2a   |     | 
            |            |     |02  9a  03  9c  01  9f  37  04  59  8b                                   |  ok | 
  177311232 |  177314784 | Rdr |a3  6f  c6                                                               |  ok | 
  177319236 |  177350468 | Tag |03  bf  0c  13  9f  5a  05  31  08  26  08  26  9f  0a  08  00  01  05   |     | 
            |            |     |02  00  00  00  00  90  00  ea  15                                       |  ok | 
  177914608 |  177914608 | Rdr |02  80  a8  00  00  23  83  21  36  a0  40  00  00  00  00  00  01  00   |     | 
            |            |     |00  00  00  00  00  00  08  26  00  00  00  00  00  08  26  20  02  17   |     | 
            |            |     |00  cd  7f  05  99  00  9a  45                                           |  ok | 
  178363444 |  178368180 | Tag |f2  01  91  40                                                           |     | 
  178388320 |  178393088 | Rdr |f2  01  91  40                                                           |  ok | 
  178789780 |  178794516 | Tag |f2  01  91  40                                                           |     | 
  178821184 |  178825952 | Rdr |f2  01  91  40                                                           |  ok | 
  178830228 |  178830228 | Tag |12  77  47  82  02  20  00  57  13  45  46  38  48  14  38  88  08  d2   |     | 
            |            |     |20  22  01  90  00  03  82  09  43  9f  5f  34  01  02  9f  10  07  06   |     | 
            |            |     |5c  0a  03  a0  00  00  9f  26  08  e3  47  69  93  9a  2b  78  c9  9f   |     | 
            |            |     |27  01  80  9f  36  02  04  a4  9c  b5                                   |  ok | 
  179114160 |  179117712 | Rdr |a3  6f  c6                                                               |  ok | 
  179122164 |  179141876 | Tag |03  9f  6c  02  16  00  9f  6e  04  20  70  00  00  90  00  13  bf       |  ok | 
  179491104 |  179494656 | Rdr |c2  e0  b4                                                               |  ok | RESTORE(224)
  179543780 |  179547300 | Tag |c2  e0  b4                                                               |     | 
  211186992 |  211188048 | Rdr |26                                                                       |     | REQA
  211189220 |  211191588 | Tag |04  00                                                                   |     | 
  211200288 |  211202752 | Rdr |93  20                                                                   |     | ANTICOLL
  211203940 |  211209764 | Tag |3f  af  e3  54  27                                                       |     | 
  211231120 |  211241648 | Rdr |93  70  3f  af  e3  54  27  9a  70                                       |  ok | SELECT_UID
  211242836 |  211246420 | Tag |20  fc  70                                                               |     | 
  211254656 |  211259360 | Rdr |e0  50  bc  a5                                                           |  ok | RATS
  211264708 |  211278596 | Tag |0a  78  80  70  02  20  63  cb  b7  80  8b  30                           |  ok | 
  211581680 |  211608272 | Rdr |02  00  a4  04  00  0e  32  50  41  59  2e  53  59  53  2e  44  44  46   |     | 
            |            |     |30  31  00  e0  42                                                       |  ok | 
  211744564 |  211744564 | Tag |12  6f  47  84  0e  32  50  41  59  2e  53  59  53  2e  44  44  46  30   |     | 
            |            |     |31  a5  35  bf  0c  32  61  30  4f  07  a0  00  00  00  03  10  10  50   |     | 
            |            |     |10  56  69  73  61  20  20  20  20  20  20  20  20  20  20  20  20  87   |     | 
            |            |     |01  01  9f  0a  08  00  01  05  a1  62                                   |  ok | 
  212022112 |  212025664 | Rdr |a3  6f  c6                                                               |  ok | 
  212030116 |  212049764 | Tag |03  02  00  00  00  00  bf  63  04  df  20  01  80  90  00  75  33       |  ok | 
  212416976 |  212435504 | Rdr |02  00  a4  04  00  07  a0  00  00  00  03  10  10  00  56  3f           |  ok | 
  212565380 |  212565380 | Tag |12  6f  51  84  07  a0  00  00  00  03  10  10  a5  46  50  10  56  69   |     | 
            |            |     |73  61  20  20  20  20  20  20  20  20  20  20  20  20  87  01  01  9f   |     | 
            |            |     |38  18  9f  66  04  9f  02  06  9f  03  06  9f  1a  02  95  05  5f  2a   |     | 
            |            |     |02  9a  03  9c  01  9f  37  04  59  8b                                   |  ok | 
  212842944 |  212846496 | Rdr |a3  6f  c6                                                               |  ok | 
  212850948 |  212882180 | Tag |03  bf  0c  13  9f  5a  05  31  08  26  08  26  9f  0a  08  00  01  05   |     | 
            |            |     |02  00  00  00  00  90  00  ea  15                                       |  ok | 
  213445552 |  213445552 | Rdr |02  80  a8  00  00  23  83  21  36  a0  40  00  00  00  00  00  01  00   |     | 
            |            |     |00  00  00  00  00  00  08  26  00  00  00  00  00  08  26  20  02  17   |     | 
            |            |     |00  cd  7f  05  99  00  9a  45                                           |  ok | 
  213894388 |  213899124 | Tag |f2  01  91  40                                                           |     | 
  213919264 |  213924032 | Rdr |f2  01  91  40                                                           |  ok | 
  214327140 |  214331876 | Tag |f2  01  91  40                                                           |     | 
  214358544 |  214363312 | Rdr |f2  01  91  40                                                           |  ok | 
  214373972 |  214373972 | Tag |12  77  47  82  02  20  00  57  13  45  46  38  48  14  38  88  08  d2   |     | 
            |            |     |20  22  01  90  00  03  82  09  43  9f  5f  34  01  02  9f  10  07  06   |     | 
            |            |     |5c  0a  03  a0  00  00  9f  26  08  08  15  ba  c5  fc  ff  37  60  9f   |     | 
            |            |     |27  01  80  9f  36  02  04  a5  14  bf                                   |  ok | 
  214657920 |  214661472 | Rdr |a3  6f  c6                                                               |  ok | 
  214665940 |  214685652 | Tag |03  9f  6c  02  16  00  9f  6e  04  20  70  00  00  90  00  13  bf       |  ok | 
  215030000 |  215033552 | Rdr |c2  e0  b4                                                               |  ok | RESTORE(224)
  215082676 |  215086196 | Tag |c2  e0  b4                                                               |     | 
  246262768 |  246263824 | Rdr |26                                                                       |     | REQA
  246265012 |  246267380 | Tag |04  00                                                                   |     | 
  246276080 |  246278544 | Rdr |93  20                                                                   |     | ANTICOLL
  246279732 |  246285556 | Tag |3f  af  e3  54  27                                                       |     | 
  246306912 |  246317440 | Rdr |93  70  3f  af  e3  54  27  9a  70                                       |  ok | SELECT_UID
  246318628 |  246322212 | Tag |20  fc  70                                                               |     | 
  246330464 |  246335168 | Rdr |e0  50  bc  a5                                                           |  ok | RATS
  246340516 |  246354404 | Tag |0a  78  80  70  02  20  63  cb  b7  80  8b  30                           |  ok | 
  246650320 |  246676912 | Rdr |02  00  a4  04  00  0e  32  50  41  59  2e  53  59  53  2e  44  44  46   |     | 
            |            |     |30  31  00  e0  42                                                       |  ok | 
  246814100 |  246814100 | Tag |12  6f  47  84  0e  32  50  41  59  2e  53  59  53  2e  44  44  46  30   |     | 
            |            |     |31  a5  35  bf  0c  32  61  30  4f  07  a0  00  00  00  03  10  10  50   |     | 
            |            |     |10  56  69  73  61  20  20  20  20  20  20  20  20  20  20  20  20  87   |     | 
            |            |     |01  01  9f  0a  08  00  01  05  a1  62                                   |  ok | 
  247091648 |  247095200 | Rdr |a3  6f  c6                                                               |  ok | 
  247099636 |  247119284 | Tag |03  02  00  00  00  00  bf  63  04  df  20  01  80  90  00  75  33       |  ok | 
  247488032 |  247506560 | Rdr |02  00  a4  04  00  07  a0  00  00  00  03  10  10  00  56  3f           |  ok | 
  247639140 |  247639140 | Tag |12  6f  51  84  07  a0  00  00  00  03  10  10  a5  46  50  10  56  69   |     | 
            |            |     |73  61  20  20  20  20  20  20  20  20  20  20  20  20  87  01  01  9f   |     | 
            |            |     |38  18  9f  66  04  9f  02  06  9f  03  06  9f  1a  02  95  05  5f  2a   |     | 
            |            |     |02  9a  03  9c  01  9f  37  04  59  8b                                   |  ok | 
  247916704 |  247920256 | Rdr |a3  6f  c6                                                               |  ok | 
  247924708 |  247955940 | Tag |03  bf  0c  13  9f  5a  05  31  08  26  08  26  9f  0a  08  00  01  05   |     | 
            |            |     |02  00  00  00  00  90  00  ea  15                                       |  ok | 
  248519296 |  248519296 | Rdr |02  80  a8  00  00  23  83  21  36  a0  40  00  00  00  00  00  01  00   |     | 
            |            |     |00  00  00  00  00  00  08  26  00  00  00  00  00  08  26  20  02  17   |     | 
            |            |     |00  cd  7f  05  99  00  9a  45                                           |  ok | 
  248968132 |  248972868 | Tag |f2  01  91  40                                                           |     | 
  248993008 |  248997776 | Rdr |f2  01  91  40                                                           |  ok | 
  249394484 |  249399220 | Tag |f2  01  91  40                                                           |     | 
  249425888 |  249430656 | Rdr |f2  01  91  40                                                           |  ok | 
  249438116 |  249438116 | Tag |12  77  47  82  02  20  00  57  13  45  46  38  48  14  38  88  08  d2   |     | 
            |            |     |20  22  01  90  00  03  82  09  43  9f  5f  34  01  02  9f  10  07  06   |     | 
            |            |     |5c  0a  03  a0  00  00  9f  26  08  94  81  39  34  6b  ce  14  14  9f   |     | 
            |            |     |27  01  80  9f  36  02  04  a6  d0  3c                                   |  ok | 
  249722064 |  249725616 | Rdr |a3  6f  c6                                                               |  ok | 
  249730068 |  249749780 | Tag |03  9f  6c  02  16  00  9f  6e  04  20  70  00  00  90  00  13  bf       |  ok | 
  250098256 |  250101808 | Rdr |c2  e0  b4                                                               |  ok | RESTORE(224)
  250149140 |  250152660 | Tag |c2  e0  b4                                                               |     | 
  281279616 |  281280672 | Rdr |26                                                                       |     | REQA
  281281844 |  281284212 | Tag |04  00                                                                   |     | 
  281292912 |  281295376 | Rdr |93  20                                                                   |     | ANTICOLL
  281296548 |  281302372 | Tag |3f  af  e3  54  27                                                       |     | 
  281323744 |  281334272 | Rdr |93  70  3f  af  e3  54  27  9a  70                                       |  ok | SELECT_UID
  281335444 |  281339028 | Tag |20  fc  70                                                               |     | 
  281347280 |  281351984 | Rdr |e0  50  bc  a5                                                           |  ok | RATS
  281359508 |  281373396 | Tag |0a  78  80  70  02  20  63  cb  b7  80  8b  30                           |  ok | 
  281666880 |  281693472 | Rdr |02  00  a4  04  00  0e  32  50  41  59  2e  53  59  53  2e  44  44  46   |     | 
            |            |     |30  31  00  e0  42                                                       |  ok | 
  281943812 |  281943812 | Tag |12  6f  47  84  0e  32  50  41  59  2e  53  59  53  2e  44  44  46  30   |     | 
            |            |     |31  a5  35  bf  0c  32  61  30  4f  07  a0  00  00  00  03  10  10  50   |     | 
            |            |     |10  56  69  73  61  20  20  20  20  20  20  20  20  20  20  20  20  87   |     | 
            |            |     |01  01  9f  0a  08  00  01  05  a1  62                                   |  ok | 
  282221360 |  282224912 | Rdr |a3  6f  c6                                                               |  ok | 
  282232692 |  282252340 | Tag |03  02  00  00  00  00  bf  63  04  df  20  01  80  90  00  75  33       |  ok | 
  282619552 |  282638080 | Rdr |02  00  a4  04  00  07  a0  00  00  00  03  10  10  00  56  3f           |  ok | 
  282921828 |  282921828 | Tag |12  6f  51  84  07  a0  00  00  00  03  10  10  a5  46  50  10  56  69   |     | 
            |            |     |73  61  20  20  20  20  20  20  20  20  20  20  20  20  87  01  01  9f   |     | 
            |            |     |38  18  9f  66  04  9f  02  06  9f  03  06  9f  1a  02  95  05  5f  2a   |     | 
            |            |     |02  9a  03  9c  01  9f  37  04  59  8b                                   |  ok | 
  283199376 |  283202928 | Rdr |a3  6f  c6                                                               |  ok | 
  283210692 |  283241924 | Tag |03  bf  0c  13  9f  5a  05  31  08  26  08  26  9f  0a  08  00  01  05   |     | 
            |            |     |02  00  00  00  00  90  00  ea  15                                       |  ok | 
  283805296 |  283805296 | Rdr |02  80  a8  00  00  23  83  21  36  a0  40  00  00  00  00  00  01  00   |     | 
            |            |     |00  00  00  00  00  00  08  26  00  00  00  00  00  08  26  20  02  17   |     | 
            |            |     |00  cd  7f  05  99  00  9a  45                                           |  ok | 
  284288452 |  284293188 | Tag |f2  01  91  40                                                           |     | 
  284313312 |  284318080 | Rdr |f2  01  91  40                                                           |  ok | 
  284717092 |  284721828 | Tag |f2  01  91  40                                                           |     | 
  284748496 |  284753264 | Rdr |f2  01  91  40                                                           |  ok | 
  285187220 |  285191956 | Tag |f2  01  91  40                                                           |     | 
  285218624 |  285223392 | Rdr |f2  01  91  40                                                           |  ok | 
  285240564 |  285240564 | Tag |12  77  47  82  02  20  00  57  13  45  46  38  48  14  38  88  08  d2   |     | 
            |            |     |20  22  01  90  00  03  82  09  43  9f  5f  34  01  02  9f  10  07  06   |     | 
            |            |     |5c  0a  03  a0  00  00  9f  26  08  4c  1f  ed  cd  85  01  ac  9f  9f   |     | 
            |            |     |27  01  80  9f  36  02  04  a7  45  72                                   |  ok | 
  285524512 |  285528064 | Rdr |a3  6f  c6                                                               |  ok | 
  285535844 |  285555556 | Tag |03  9f  6c  02  16  00  9f  6e  04  20  70  00  00  90  00  13  bf       |  ok | 
  285904784 |  285908336 | Rdr |c2  e0  b4                                                               |  ok | RESTORE(224)
  285998036 |  286001556 | Tag |c2  e0  b4                                                               |     | 